…
get_ggplot_data(ggplot_obj)

## # A tibble: 32 x 4
##        x     y PANEL group
##    <dbl> <dbl> <fct> <int>
##  1  2.62  21   1        -1
##  2  2.88  21   1        -1
##  3  2.32  22.8 1        -1
##  4  3.22  21.4 1        -1
##  5  3.44  18.7 1        -1
##  6  3.46  18.1 1        -1
##  7  3.57  14.3 1        -1
##  8  3.19  24.4 1        -1
##  9  3.15  22.8 1        -1
## 10  3.44  19.2 1        -1
## # … with 22 more rows
…
